%YAML 1.1
%TAG !u! tag:unity3d.com,2011:
--- !u!114 &11400000
MonoBehaviour:
  m_ObjectHideFlags: 0
  m_CorrespondingSourceObject: {fileID: 0}
  m_PrefabInstance: {fileID: 0}
  m_PrefabAsset: {fileID: 0}
  m_GameObject: {fileID: 0}
  m_Enabled: 1
  m_EditorHideFlags: 0
  m_Script: {fileID: 11500000, guid: e4a9b5ee0645c814f9dabcd3997ffac1, type: 3}
  m_Name: Allies_Add 20 Init. Mod
  m_EditorClassIdentifier: 
  cmndName: Initiative + 20
  description: 
  onCastMessage: 
  animatorTriggerName: Cast
  hPCost: 0
  mPCost: 0
  tPCost: 0
  targetType: 5
  particleEffect: {fileID: 6691731378941802459, guid: 9e52cea2ea743994c9a6ba6e6152d114,
    type: 3}
  soundEffect: {fileID: 8300000, guid: 0b9523f5055bd1043a528aae99621f7e, type: 3}
  menuToAppearIn: 0
  additionalOnHitEffects: []
  thisCommandTriggersProcs: 0
  animationDelay: 0.5
  isBeneficial: 0
  isDetrimental: 0
  isResistable: 0
  isCureable_Dispelable: 0
  effectRemainsUntilCured: 0
  onReApply: 2
  turnDuration: 2
  statToModify: 06000000
  amountToChange: 14000000
