%YAML 1.1
%TAG !u! tag:unity3d.com,2011:
--- !u!114 &11400000
MonoBehaviour:
  m_ObjectHideFlags: 0
  m_CorrespondingSourceObject: {fileID: 0}
  m_PrefabInstance: {fileID: 0}
  m_PrefabAsset: {fileID: 0}
  m_GameObject: {fileID: 0}
  m_Enabled: 1
  m_EditorHideFlags: 0
  m_Script: {fileID: 11500000, guid: ca51b6632d2040c4e906d98d11611a89, type: 3}
  m_Name: Lisa_MainMenu_Attack(proj_SphereOfPoison)
  m_EditorClassIdentifier: 
  cmndName: 
  icon: {fileID: 0}
  description: 
  onCastMessage: <name> attacks <hTarget>!
  combatLogMessage: <name> attacks <hTarget>!
  combatLogMssgColor:
    serializedVersion: 2
    rgba: 4294967295
  animatorTriggerName: Attack
  hPCost: 0
  mPCost: 0
  tPCost: 0
  targetType: 0
  particleEffect: {fileID: 0}
  onCastSoundEffect: {fileID: 0}
  onHitSoundEffect: {fileID: 0}
  menuToAppearIn: 0
  additionalOnHitEffects: []
  thisCommandTriggersProcs: 1
  moveToPosSpeed: 5
  animationDelay: 1.5
  projectileSpawnPointName: --
  moveBeforeFire: 1
  faceTargetBeforeFiring: 0
  projectileToFire: {fileID: 1797607009156145245, guid: 28eaff23010a9084ea76495685f7b332,
    type: 3}
