%YAML 1.1
%TAG !u! tag:unity3d.com,2011:
--- !u!114 &11400000
MonoBehaviour:
  m_ObjectHideFlags: 0
  m_CorrespondingSourceObject: {fileID: 0}
  m_PrefabInstance: {fileID: 0}
  m_PrefabAsset: {fileID: 0}
  m_GameObject: {fileID: 0}
  m_Enabled: 1
  m_EditorHideFlags: 0
  m_Script: {fileID: 11500000, guid: 06537bc0a3e6f064d8ae7bfd3590b23a, type: 3}
  m_Name: GiantTroll_Stats_Config
  m_EditorClassIdentifier: 
  damageShields: []
  attackBonus: 5
  damageBonus: 5
  damageReduction: 2
  DEFENSE: 1
  weakAgainst: 01000000
  strongAgainst: 
  attunedTo: 
  curHP: 250
  maxHP: 250
  curMP: 0
  maxMP: 0
  curTP: 0
  maxTP: 0
  STRENGTH: 18
  INTELLIGENCE: 5
  AGILITY: 12
  INITIATIVE_MOD: 1
  magRes: 0.02
  CharName: 
