%YAML 1.1
%TAG !u! tag:unity3d.com,2011:
--- !u!114 &11400000
MonoBehaviour:
  m_ObjectHideFlags: 0
  m_CorrespondingSourceObject: {fileID: 0}
  m_PrefabInstance: {fileID: 0}
  m_PrefabAsset: {fileID: 0}
  m_GameObject: {fileID: 0}
  m_Enabled: 1
  m_EditorHideFlags: 0
  m_Script: {fileID: 11500000, guid: 13f9857ab4a4f314f9fb9c4da7b26bd1, type: 3}
  m_Name: Quest_GatherPlants
  m_EditorClassIdentifier: 
  Title: Gather "Purple-looking" Plants
  Description: Karl needs a special plant to finish his potions. Search the area outside
    his home for the plants he requires.
  CompletedDescription: Karl made some useful potions from the purple plants.
  Level: 1
  State: 2
  IsRepeatable: 0
  RewardClaimed: 0
  Objectives:
  - Description: 'Gather Purple Plants:

      0 / 5'
    ObjectiveUpdatedDescription: 'Gather Purple Plants:

      <counter> / 5'
    counter: 0
    counterTarget: 5
    isHidden: 0
    objectivesToShowWhenThisObjectiveIsComplete: 01000000
    conditionsToSetTrueOnCompletion:
    - {fileID: -849102301186048212, guid: ec6bd8084eee8d34eba426b98abac880, type: 2}
  - Description: Take the plants back to Karl's home.
    ObjectiveUpdatedDescription: You took the purple plants into Karl's home.
    counter: 0
    counterTarget: 0
    isHidden: 1
    objectivesToShowWhenThisObjectiveIsComplete: 
    conditionsToSetTrueOnCompletion:
    - {fileID: 7395086277767390104, guid: ec6bd8084eee8d34eba426b98abac880, type: 2}
  Reward: {fileID: 11400000, guid: 1264d3eae8b75224bb0d3829841b1b2a, type: 2}
