%YAML 1.1
%TAG !u! tag:unity3d.com,2011:
--- !u!114 &11400000
MonoBehaviour:
  m_ObjectHideFlags: 0
  m_CorrespondingSourceObject: {fileID: 0}
  m_PrefabInstance: {fileID: 0}
  m_PrefabAsset: {fileID: 0}
  m_GameObject: {fileID: 0}
  m_Enabled: 1
  m_EditorHideFlags: 0
  m_Script: {fileID: 11500000, guid: 86e146492042c7747bad57b8a6ed9d79, type: 3}
  m_Name: Babz_Stats_Config
  m_EditorClassIdentifier: 
  damageShields: []
  attackBonus: 0
  damageBonus: 0
  damageReduction: 0
  DEFENSE: 0
  weakAgainst: 
  strongAgainst: 
  attunedTo: 
  curHP: 40
  maxHP: 40
  curMP: 2
  maxMP: 2
  curTP: 2
  maxTP: 2
  STRENGTH: 11
  INTELLIGENCE: 11
  AGILITY: 10
  INITIATIVE_MOD: 0
  magRes: 0.1
  CharName: 
  PC_StartingEquipment:
  - {fileID: 11400000, guid: 7bad18e1ec411f54da5451650705fe6a, type: 2}
  - {fileID: 11400000, guid: 9e18e68b97633dd4b90b9bc43ce7c881, type: 2}
  - {fileID: 11400000, guid: ff2ef46f61cedf948bb20d31cea93eba, type: 2}
  - {fileID: 11400000, guid: 54de086a2db43fd4e8a5abce86759fa4, type: 2}
  - {fileID: 11400000, guid: 9fb01310c02740948b7a6f2044ee8ccf, type: 2}
  - {fileID: 11400000, guid: 623c107f34b9e094e9576c069af6fa1f, type: 2}
  PC_Portrait: {fileID: 8400000, guid: 0202ec3805137f14196f7a29ef6a342f, type: 2}
  EquippedGear:
    Head: {fileID: 0}
    Chest: {fileID: 0}
    Waist: {fileID: 0}
    Legs: {fileID: 0}
    Feet: {fileID: 0}
    Adorn_1: {fileID: 0}
    Adorn_2: {fileID: 0}
    Weapon: {fileID: 0}
  KnownAbilities:
  - {fileID: 11400000, guid: cc099c7913c510348a0048b6496a6384, type: 2}
  PC_Slot_position: 0
  StartingLvl: 2
