%YAML 1.1
%TAG !u! tag:unity3d.com,2011:
--- !u!114 &11400000
MonoBehaviour:
  m_ObjectHideFlags: 0
  m_CorrespondingSourceObject: {fileID: 0}
  m_PrefabInstance: {fileID: 0}
  m_PrefabAsset: {fileID: 0}
  m_GameObject: {fileID: 0}
  m_Enabled: 1
  m_EditorHideFlags: 0
  m_Script: {fileID: 11500000, guid: 86e146492042c7747bad57b8a6ed9d79, type: 3}
  m_Name: Lisa_Stats_Config
  m_EditorClassIdentifier: 
  damageShields: []
  attackBonus: 0
  damageBonus: 0
  damageReduction: 0
  DEFENSE: 0
  weakAgainst: 
  strongAgainst: 
  attunedTo: 
  curHP: 30
  maxHP: 30
  curMP: 4
  maxMP: 4
  curTP: 0
  maxTP: 0
  STRENGTH: 9
  INTELLIGENCE: 14
  AGILITY: 9
  INITIATIVE_MOD: 0
  magRes: 0.1
  CharName: 
  PC_StartingEquipment: []
  PC_Portrait: {fileID: 8400000, guid: 7a2c59ae447de2044a11b8531dd776ab, type: 2}
  EquippedGear:
    Head: {fileID: 0}
    Chest: {fileID: 0}
    Waist: {fileID: 0}
    Legs: {fileID: 0}
    Feet: {fileID: 0}
    Adorn_1: {fileID: 0}
    Adorn_2: {fileID: 0}
    Weapon: {fileID: 0}
  KnownAbilities: []
  PC_Slot_position: 0
  StartingLvl: 5
