%YAML 1.1
%TAG !u! tag:unity3d.com,2011:
--- !u!114 &11400000
MonoBehaviour:
  m_ObjectHideFlags: 0
  m_CorrespondingSourceObject: {fileID: 0}
  m_PrefabInstance: {fileID: 0}
  m_PrefabAsset: {fileID: 0}
  m_GameObject: {fileID: 0}
  m_Enabled: 1
  m_EditorHideFlags: 0
  m_Script: {fileID: 11500000, guid: 86e146492042c7747bad57b8a6ed9d79, type: 3}
  m_Name: Saul_Stats_Config
  m_EditorClassIdentifier: 
  damageShields: []
  attackBonus: 0
  damageBonus: 0
  damageReduction: 0
  DEFENSE: 0
  weakAgainst: 
  strongAgainst: 
  attunedTo: 
  curHP: 60
  maxHP: 60
  curMP: 5
  maxMP: 5
  curTP: 3
  maxTP: 3
  STRENGTH: 12
  INTELLIGENCE: 10
  AGILITY: 10
  INITIATIVE_MOD: 0
  magRes: 0.1
  CharName: 
  PC_StartingEquipment:
  - {fileID: 11400000, guid: 55173aaa8f4528d45800cc6b99ce1080, type: 2}
  PC_Portrait: {fileID: 8400000, guid: 1d22bde3047d39442991e38a7dfdde14, type: 2}
  EquippedGear:
    Head: {fileID: 0}
    Chest: {fileID: 0}
    Waist: {fileID: 0}
    Legs: {fileID: 0}
    Feet: {fileID: 0}
    Adorn_1: {fileID: 0}
    Adorn_2: {fileID: 0}
    Weapon: {fileID: 0}
  KnownAbilities: []
  PC_Slot_position: 0
  StartingLvl: 1
