%YAML 1.1
%TAG !u! tag:unity3d.com,2011:
--- !u!114 &11400000
MonoBehaviour:
  m_ObjectHideFlags: 0
  m_CorrespondingSourceObject: {fileID: 0}
  m_PrefabInstance: {fileID: 0}
  m_PrefabAsset: {fileID: 0}
  m_GameObject: {fileID: 0}
  m_Enabled: 1
  m_EditorHideFlags: 0
  m_Script: {fileID: 11500000, guid: e4a9b5ee0645c814f9dabcd3997ffac1, type: 3}
  m_Name: Favor of the Demon King
  m_EditorClassIdentifier: 
  cmndName: Favor of the Demon King
  description: Increase STR and AGI of all allies by 5 for 3 turns
  onCastMessage: 
  combatLogMessage: <name> cast <command>.
  combatLogMssgColor:
    serializedVersion: 2
    rgba: 4294967295
  animatorTriggerName: Cast
  hPCost: 0
  mPCost: 0
  tPCost: 0
  targetType: 5
  particleEffect: {fileID: 6951844316174292648, guid: 2d1101936285baa48b0fa6c74278b748,
    type: 3}
  onCastSoundEffect: {fileID: 8300000, guid: 0b9523f5055bd1043a528aae99621f7e, type: 3}
  onHitSoundEffect: {fileID: 0}
  menuToAppearIn: 1
  additionalOnHitEffects: []
  thisCommandTriggersProcs: 0
  onReApply: 1
  animationDelay: 0.5
  isBeneficial: 1
  isDetrimental: 0
  isResistable: 0
  isCureable_Dispelable: 1
  effectRemainsUntilCured: 0
  turnDuration: 3
  statToModify: 0000000002000000
  amountToChange: 0500000005000000
