%YAML 1.1
%TAG !u! tag:unity3d.com,2011:
--- !u!114 &11400000
MonoBehaviour:
  m_ObjectHideFlags: 0
  m_CorrespondingSourceObject: {fileID: 0}
  m_PrefabInstance: {fileID: 0}
  m_PrefabAsset: {fileID: 0}
  m_GameObject: {fileID: 0}
  m_Enabled: 1
  m_EditorHideFlags: 0
  m_Script: {fileID: 11500000, guid: 84e26a39f3cbcfd4f8e7644be32428ac, type: 3}
  m_Name: Melee_Physical_1d4
  m_EditorClassIdentifier: 
  atkType: 0
  dmgType: 0
  attackCanMiss: 1
  minDamage: 1
  maxDamage: 4
  critChance: 0.05
