%YAML 1.1
%TAG !u! tag:unity3d.com,2011:
--- !u!114 &11400000
MonoBehaviour:
  m_ObjectHideFlags: 0
  m_CorrespondingSourceObject: {fileID: 0}
  m_PrefabInstance: {fileID: 0}
  m_PrefabAsset: {fileID: 0}
  m_GameObject: {fileID: 0}
  m_Enabled: 1
  m_EditorHideFlags: 0
  m_Script: {fileID: 11500000, guid: 6b60676273be98746a7699a6009bb48b, type: 3}
  m_Name: Life I
  m_EditorClassIdentifier: 
  cmndName: Life I
  icon: {fileID: 21300000, guid: 3054ebaf1cf5e084884027d9c3251c86, type: 3}
  description: Raise an ally from the dead and restore 50% of their max HP
  onCastMessage: <name> casts Life I on <fTarget>
  combatLogMessage: 
  combatLogMssgColor:
    serializedVersion: 2
    rgba: 4294967295
  animatorTriggerName: Cast
  hPCost: 0
  mPCost: 1
  tPCost: 0
  targetType: 6
  particleEffect: {fileID: 6691731378941802459, guid: 9e52cea2ea743994c9a6ba6e6152d114,
    type: 3}
  onCastSoundEffect: {fileID: 0}
  onHitSoundEffect: {fileID: 8300000, guid: 136a21330c4e00a4a89a64b01e15607f, type: 3}
  menuToAppearIn: 1
  additionalOnHitEffects: []
  thisCommandTriggersProcs: 0
  onReApply: 3
  animationDelay: 0.5
  delayAfterParticleEffect: 0
  isBeneficial: 1
  isDetrimental: 0
  isResistable: 0
  isCureable_Dispelable: 0
  effectRemainsUntilCured: 0
  turnDuration: 0
  statsToHeal: 00000000
  minAmount_OnApply: 0
  maxAmount_OnApply: 0
  minAmount_PerTick: 0
  maxAmount_PerTick: 0
  percentageOfMaxRegainedOnInitialHit: 50
  percentageOfMaxRegainedPerTick: 0
