%YAML 1.1
%TAG !u! tag:unity3d.com,2011:
--- !u!114 &11400000
MonoBehaviour:
  m_ObjectHideFlags: 0
  m_CorrespondingSourceObject: {fileID: 0}
  m_PrefabInstance: {fileID: 0}
  m_PrefabAsset: {fileID: 0}
  m_GameObject: {fileID: 0}
  m_Enabled: 1
  m_EditorHideFlags: 0
  m_Script: {fileID: 11500000, guid: c93aab92692d2e34e97b6e5898d965ab, type: 3}
  m_Name: Babz_SpinAttack(melee_physical)
  m_EditorClassIdentifier: 
  cmndName: Spin Attack
  icon: {fileID: 21300000, guid: a22b393e9be014540b79b0fbd360171e, type: 3}
  description: Slice and dice a single enemy.
  onCastMessage: '"WaaaaaHhhhHH!"'
  combatLogMessage: <name> attacks <hTarget> with Spin Attack!" <i>Wioo Wioo Pioo</i>"
  combatLogMssgColor:
    serializedVersion: 2
    rgba: 4293373183
  animatorTriggerName: Special2
  hPCost: 0
  mPCost: 1
  tPCost: 1
  targetType: 0
  particleEffect: {fileID: 0}
  onCastSoundEffect: {fileID: 8300000, guid: 444197ca4b6a0cc41b01bf98d79a4edd, type: 3}
  onHitSoundEffect: {fileID: 8300000, guid: 379e40c9ee994864fa1cbcd90934c6a9, type: 3}
  menuToAppearIn: 0
  additionalOnHitEffects: []
  thisCommandTriggersProcs: 1
  moveToTargetSpeed: 15
  hostileFrontZOffset: -0.5
  damageConfig: {fileID: 11400000, guid: c239d914b9d0116468a35a5ddfd164bf, type: 2}
