%YAML 1.1
%TAG !u! tag:unity3d.com,2011:
--- !u!114 &11400000
MonoBehaviour:
  m_ObjectHideFlags: 0
  m_CorrespondingSourceObject: {fileID: 0}
  m_PrefabInstance: {fileID: 0}
  m_PrefabAsset: {fileID: 0}
  m_GameObject: {fileID: 0}
  m_Enabled: 1
  m_EditorHideFlags: 0
  m_Script: {fileID: 11500000, guid: c93aab92692d2e34e97b6e5898d965ab, type: 3}
  m_Name: Ed_Kick(melee_physical_4d6+20)
  m_EditorClassIdentifier: 
  cmndName: Kick
  icon: {fileID: 21300000, guid: 4ed5bef21d80b454b83ca210bbbb0026, type: 3}
  description: Feed your enemy a toenail sandwich.
  onCastMessage: '"Hiyaaaaahhhh!!"'
  combatLogMessage: <name> kicks <hTarget>!
  combatLogMssgColor:
    serializedVersion: 2
    rgba: 4294967295
  animatorTriggerName: Special2
  hPCost: 1
  mPCost: 0
  tPCost: 0
  targetType: 0
  particleEffect: {fileID: 0}
  onCastSoundEffect: {fileID: 0}
  onHitSoundEffect: {fileID: 8300000, guid: 0d3d7afb5ec538343a9fd9d4235bdefa, type: 3}
  menuToAppearIn: 0
  additionalOnHitEffects: []
  thisCommandTriggersProcs: 1
  moveToTargetSpeed: 20
  hostileFrontZOffset: -0.8
  damageConfig: {fileID: 11400000, guid: c239d914b9d0116468a35a5ddfd164bf, type: 2}
