%YAML 1.1
%TAG !u! tag:unity3d.com,2011:
--- !u!114 &11400000
MonoBehaviour:
  m_ObjectHideFlags: 0
  m_CorrespondingSourceObject: {fileID: 0}
  m_PrefabInstance: {fileID: 0}
  m_PrefabAsset: {fileID: 0}
  m_GameObject: {fileID: 0}
  m_Enabled: 1
  m_EditorHideFlags: 0
  m_Script: {fileID: 11500000, guid: c93aab92692d2e34e97b6e5898d965ab, type: 3}
  m_Name: Jimbo_ShieldBash(melee_physical_2d6_noMiss)
  m_EditorClassIdentifier: 
  cmndName: Shield Bash
  icon: {fileID: 21300000, guid: b97c91e8b348f3f4ebdc11f5c82182cd, type: 3}
  description: Smack a fool upside the head!
  onCastMessage: <name> bashes <hTarget>!
  combatLogMessage: <name> attacks <hTarget>!
  combatLogMssgColor:
    serializedVersion: 2
    rgba: 4294967295
  animatorTriggerName: Special2
  hPCost: 0
  mPCost: 0
  tPCost: 1
  targetType: 0
  particleEffect: {fileID: 0}
  onCastSoundEffect: {fileID: 0}
  onHitSoundEffect: {fileID: 8300000, guid: da0093ebe4323b846a8f67e40229df09, type: 3}
  menuToAppearIn: 0
  additionalOnHitEffects: []
  thisCommandTriggersProcs: 1
  moveToTargetSpeed: 15
  hostileFrontZOffset: 0
  damageConfig: {fileID: 11400000, guid: bfce33edcdc232c44bc41660703bbabe, type: 2}
